<svg width="17" height="12" viewBox="0 0 17 12" fill="none" xmlns="http://www.w3.org/2000/svg">
<path d="M1.30769 0C1.13412 0 0.968584 0.0351556 0.817308 0.0972222L8.04367 6.90974C8.35374 7.20202 8.63193 7.20222 8.94271 6.90974L16.1827 0.0972222C16.0314 0.0351556 15.8659 0 15.6923 0H1.30769ZM0.0136218 1.15278C0.00597397 1.21133 0 1.27258 0 1.33333V10.6667C0 11.4053 0.583239 12 1.30769 12H15.6923C16.4168 12 17 11.4053 17 10.6667V1.33333C17 1.27258 16.994 1.21133 16.9864 1.15278L9.83494 7.88889C9.08498 8.59473 7.90132 8.59584 7.15144 7.88889L0.0136218 1.15278Z" fill="#D5287A"/>
</svg>
