<svg width="24" height="24" viewBox="0 0 24 24" fill="none" xmlns="http://www.w3.org/2000/svg">
<path fill-rule="evenodd" clip-rule="evenodd" d="M0 11.1105C0 4.974 5.373 0 12 0C18.627 0 24 4.974 24 11.112C24 17.2485 18.627 22.2225 12 22.2225C10.803 22.2225 9.648 22.059 8.5575 21.7575L4.4715 24V19.7625C1.7445 17.7255 0 14.607 0 11.1105ZM10.137 11.703L13.1925 14.9625L19.752 7.99951L13.863 11.259L10.7325 7.99951L4.17451 14.9625L10.137 11.703Z" fill="#D5287A"/>
</svg>
