<svg width="18" height="18" viewBox="0 0 18 18" fill="none" xmlns="http://www.w3.org/2000/svg">
<path fill-rule="evenodd" clip-rule="evenodd" d="M0 8.33288C0 3.7305 4.02975 0 9 0C13.9703 0 18 3.7305 18 8.334C18 12.9364 13.9703 16.6669 9 16.6669C8.10225 16.6669 7.236 16.5443 6.41813 16.3181L3.35362 18V14.8219C1.30838 13.2941 0 10.9552 0 8.33288ZM7.60276 8.77704L9.89438 11.2217L14.814 5.99941L10.3973 8.44404L8.04938 5.99941L3.13088 11.2217L7.60276 8.77704Z" fill="white"/>
</svg>
