<svg width="15" height="15" viewBox="0 0 15 15" fill="none" xmlns="http://www.w3.org/2000/svg">
<path d="M14.9929 11.838C14.9503 11.6258 14.8182 11.4515 14.5955 11.3135L11.5309 9.50217H11.5151C11.4093 9.43867 11.2666 9.40683 11.0864 9.40683C10.8324 9.40683 10.6102 9.49183 10.4195 9.661L9.51425 10.5828C9.49309 10.604 9.45862 10.6223 9.41115 10.6383C9.36351 10.6543 9.32904 10.6622 9.30788 10.6622L9.10968 10.6223C8.97694 10.596 8.78657 10.5193 8.5379 10.3922C8.2889 10.265 7.97927 10.0663 7.60886 9.79633C7.2381 9.52617 6.81489 9.14767 6.33854 8.65983C5.85153 8.1835 5.47562 7.76233 5.2108 7.39683C4.94631 7.0315 4.75027 6.7215 4.62336 6.46733C4.47512 6.18133 4.37985 5.92683 4.33755 5.70467C4.33755 5.67283 4.34538 5.63283 4.3612 5.58533C4.37719 5.5375 4.39568 5.50317 4.41683 5.482L5.19497 4.70333C5.33271 4.56567 5.42265 4.39583 5.46479 4.19483C5.50726 3.99333 5.48078 3.80833 5.38551 3.63883L3.68665 0.412833C3.6127 0.296333 3.52259 0.198667 3.41683 0.119167C3.31074 0.0395 3.18915 0 3.05158 0C2.8607 0 2.69165 0.0741667 2.54342 0.2225L0.431499 2.3355C0.325736 2.43117 0.23563 2.55533 0.161679 2.70917C0.0875625 2.86267 0.0399278 3.0135 0.0187753 3.162C0.0187753 3.18317 0.0132789 3.28917 0.0026194 3.4795C-0.00787357 3.6705 0.0131124 3.93267 0.06641 4.26617C0.119208 4.6 0.219641 4.99733 0.368041 5.458C0.516442 5.91867 0.738626 6.4325 1.03493 6.99933C1.33156 7.56617 1.72313 8.18317 2.21014 8.85067C2.69715 9.518 3.3109 10.2173 4.05207 10.948C4.98361 11.8907 5.86253 12.6325 6.68814 13.1727C7.51392 13.7128 8.25209 14.1182 8.90349 14.3882C9.55422 14.6582 10.105 14.8282 10.5549 14.8967C11.0047 14.9657 11.3304 15 11.5314 15C11.6162 15 11.685 14.9972 11.7378 14.992C11.7909 14.9868 11.8227 14.984 11.8332 14.984C11.9813 14.9628 12.1323 14.915 12.2857 14.8408C12.4393 14.767 12.5635 14.6768 12.6591 14.5708L14.7709 12.4735C14.9503 12.2935 15.0246 12.0817 14.9929 11.838Z" fill="#D5287A"/>
</svg>
