<svg width="68" height="63" viewBox="0 0 68 63" fill="none" xmlns="http://www.w3.org/2000/svg">
<path d="M27.0198 2.89862C27.4869 2.68828 27.9467 2.46571 28.4188 2.2676C31.0831 1.1332 33.9059 0.414726 36.7883 0.137309C40.5785 -0.237068 44.4052 0.15603 48.0401 1.29314C51.6749 2.43024 55.0434 4.28805 57.9445 6.75565C62.3409 10.4474 65.4993 15.3985 66.994 20.9413C67.5047 22.798 67.8195 24.7031 67.9332 26.6254C68.2426 31.0873 67.475 35.5582 65.6953 39.6615C63.0611 45.7222 58.8201 50.3301 53.026 53.5023C50.23 55.0225 47.194 56.0516 44.0499 56.5449C43.0662 56.7052 42.074 56.8081 41.0783 56.853C41.0166 56.8659 40.9527 56.8635 40.8922 56.846C40.8316 56.8285 40.7763 56.7965 40.731 56.7528C39.9165 55.8674 39.0189 55.0676 38.1996 54.1822C37.9217 53.8822 37.7641 53.4904 37.7569 53.0816C37.6632 51.4533 37.4721 49.8321 37.1845 48.2267C36.5871 44.9583 35.1252 41.9096 32.9509 39.3973C32.54 38.9082 32.1144 38.441 31.6937 37.9641C30.9732 37.1173 30.0466 36.4703 29.0033 36.0857C27.553 35.5721 26.1931 34.8628 24.7941 34.2367C23.515 33.6644 22.204 33.1875 20.7879 33.0896C20.6093 33.0774 20.6191 32.9771 20.6191 32.845C20.6191 32.3852 20.6607 31.9279 20.6485 31.4681C20.6093 30.0177 20.1593 28.6652 19.6506 27.3322C19.0269 25.7302 18.3763 24.138 17.6719 22.5702C17.3275 21.764 17.2807 20.8617 17.5399 20.0241C18.1537 17.6639 19.6726 16.172 21.9839 15.4627C23.4478 15.0343 24.9562 14.7758 26.4793 14.6923C27.9052 14.5945 29.3311 14.5896 30.7594 14.5798C31.463 14.5683 32.1649 14.5086 32.8604 14.4012C33.8607 14.2569 34.6287 13.7091 35.3355 13.0389C36.4533 11.9823 37.4414 10.8059 38.4931 9.68817C38.8942 9.26016 39.3222 8.8566 39.716 8.42124C39.8553 8.26576 40.0274 8.14303 40.2198 8.06185C40.4122 7.98066 40.6202 7.94303 40.8288 7.95165C41.159 7.95165 41.4916 7.91007 41.8218 7.87338C42.4244 7.7995 42.9892 7.54059 43.4385 7.13231C44.2828 6.42641 44.944 5.52691 45.3658 4.51041C45.8696 3.24592 45.3951 2.09151 44.204 1.59501C43.8973 1.45818 43.5584 1.40989 43.2257 1.4556C43.0451 1.48967 42.8583 1.45476 42.7023 1.35777C42.3868 1.1774 42.035 1.06962 41.6726 1.04226C40.885 0.971328 40.0999 0.919966 39.3148 0.817243C37.9574 0.641145 36.8348 1.21102 35.9176 2.182C35.8423 2.26783 35.7494 2.33633 35.6451 2.38278C35.5408 2.42922 35.4277 2.45251 35.3135 2.45104C32.8799 2.52197 30.4488 2.60757 28.025 2.85949C27.6973 2.89373 27.372 2.94265 27.0467 2.98422L27.0198 2.89862ZM47.6746 29.3842C47.6746 30.5484 47.6746 31.7126 47.6746 32.8744C47.6746 33.1483 47.7504 33.2119 48.0146 33.2119C49.6973 33.2119 51.3775 33.2119 53.0603 33.1997C53.3293 33.1997 53.388 33.2779 53.3782 33.5274C53.3586 33.9677 53.3782 34.4079 53.3782 34.8482C53.3782 35.0585 53.4442 35.1245 53.6472 35.1147C53.9212 35.1025 54.1951 35.1025 54.469 35.1147C54.6623 35.1147 54.7136 35.0536 54.7136 34.8702C54.7136 34.0973 54.7136 33.3244 54.7136 32.5515C54.7136 32.0404 54.7136 32.0257 54.2 32.0453C53.931 32.0453 53.8576 31.9768 53.86 31.7053C53.86 29.7486 53.86 27.814 53.86 25.8672C53.86 25.6568 53.8136 25.5639 53.5837 25.581C53.3297 25.6011 53.0745 25.6011 52.8206 25.581C52.576 25.5614 52.4855 25.6373 52.4879 25.9038C52.4879 27.8311 52.4879 29.756 52.5002 31.6833C52.5002 31.9548 52.4488 32.0526 52.1553 32.0453C51.2259 32.0257 50.2965 32.0281 49.3695 32.0453C49.1005 32.0453 49.0296 31.9743 49.032 31.7053C49.032 29.7682 49.032 27.8336 49.032 25.8965C49.032 25.6519 48.9855 25.5565 48.7287 25.581C48.4953 25.6033 48.2602 25.6033 48.0268 25.581C47.7504 25.5541 47.6575 25.6373 47.6624 25.9307C47.6819 27.0754 47.6722 28.2298 47.6722 29.3842H47.6746ZM64.3232 29.4136C64.3232 28.2298 64.3232 27.0485 64.3232 25.8647C64.3232 25.6373 64.2669 25.5639 64.0272 25.5663C62.9315 25.5786 61.826 25.5663 60.7425 25.5663C60.1918 25.5503 59.6482 25.6938 59.1772 25.9797C58.4215 26.4688 58.2282 27.2026 58.2992 28.0464C58.3142 28.4408 58.4481 28.8214 58.6834 29.1383C58.9187 29.4552 59.2443 29.6935 59.6175 29.822C59.884 29.9247 59.884 29.9957 59.7275 30.2085C59.0623 31.1134 58.4141 32.033 57.7709 32.9478C57.722 33.0162 57.6217 33.0823 57.6706 33.1728C57.7195 33.2633 57.832 33.2192 57.9152 33.2192C58.2967 33.2192 58.6783 33.2192 59.0598 33.2192C59.1365 33.2257 59.2134 33.2098 59.2812 33.1733C59.3489 33.1368 59.4046 33.0814 59.4414 33.0138C59.8881 32.3485 60.3414 31.6882 60.8012 31.0327C61.0238 30.7147 61.1632 30.2598 61.4958 30.1155C61.8285 29.9712 62.2638 30.0886 62.6527 30.0666C62.8973 30.0519 62.9486 30.1302 62.9437 30.3601C62.9315 31.221 62.9437 32.0722 62.9437 32.9404C62.9437 33.1654 63.0122 33.2315 63.225 33.2217C63.4987 33.2055 63.7731 33.2055 64.0468 33.2217C64.2914 33.2364 64.3427 33.1508 64.3403 32.9209C64.3158 31.7615 64.3207 30.5876 64.3232 29.4136ZM47.0411 33.2046C46.8504 32.7154 46.6743 32.2409 46.4957 31.7787C45.7351 29.8049 44.9671 27.8336 44.2138 25.8574C44.1949 25.7634 44.1395 25.6807 44.0597 25.6275C43.9799 25.5743 43.8823 25.5549 43.7882 25.5737C43.5156 25.5961 43.2415 25.5961 42.9689 25.5737C42.7243 25.5541 42.6313 25.6495 42.5506 25.8672C41.8511 27.7064 41.137 29.5359 40.4277 31.38L39.7233 33.2095C40.1489 33.2095 40.528 33.2095 40.9071 33.2095C40.9733 33.2196 41.0409 33.204 41.096 33.1658C41.1511 33.1275 41.1894 33.0696 41.203 33.004C41.3815 32.4977 41.5845 32.0012 41.7484 31.4925C41.758 31.4438 41.7772 31.3974 41.8049 31.3561C41.8325 31.3148 41.868 31.2794 41.9094 31.2519C41.9508 31.2244 41.9972 31.2053 42.0459 31.1958C42.0947 31.1863 42.1449 31.1866 42.1936 31.1966C42.9844 31.2112 43.776 31.2112 44.5684 31.1966C44.6578 31.1807 44.7499 31.2005 44.8248 31.2517C44.8998 31.3029 44.9517 31.3815 44.9695 31.4705C45.1407 31.989 45.3315 32.5002 45.5174 33.0138C45.5492 33.097 45.5541 33.2119 45.6935 33.2095C46.1289 33.2021 46.5666 33.2046 47.0387 33.2046H47.0411ZM34.2912 29.4038V32.8671C34.2919 32.8768 34.2919 32.8866 34.2912 32.8964C34.2545 33.1263 34.3254 33.2364 34.5847 33.2144C34.8583 33.1957 35.1328 33.1957 35.4064 33.2144C35.5972 33.2144 35.651 33.163 35.651 32.9698C35.651 32.1675 35.651 31.3653 35.651 30.5631C35.651 30.3454 35.7073 30.2769 35.9298 30.2794C36.6342 30.2794 37.3386 30.2965 38.043 30.2794C38.3402 30.2844 38.6353 30.2293 38.9105 30.1172C39.1858 30.0052 39.4355 29.8385 39.6446 29.6273C39.8537 29.4162 40.0179 29.1648 40.1273 28.8885C40.2366 28.6122 40.2889 28.3166 40.2809 28.0195C40.3103 26.6376 39.5007 25.7351 38.1262 25.6324C36.9253 25.5419 35.722 25.6177 34.5186 25.5883C34.2961 25.5883 34.2936 25.7033 34.2936 25.8647C34.2912 27.0363 34.2887 28.22 34.2887 29.4013L34.2912 29.4038ZM28.2696 29.4038C28.2696 30.5778 28.2696 31.7518 28.2696 32.9258C28.2696 33.141 28.321 33.2241 28.5484 33.207C28.8122 33.1872 29.0771 33.1872 29.3409 33.207C29.5854 33.2266 29.6515 33.1434 29.649 32.8988C29.649 30.9618 29.649 29.0247 29.649 27.0876C29.649 26.821 29.7175 26.7379 29.9914 26.7428C31.0676 26.7574 32.1437 26.7428 33.2199 26.7428C33.4229 26.7428 33.5012 26.6889 33.484 26.4786C33.4663 26.2637 33.4663 26.0478 33.484 25.8329C33.5036 25.6055 33.4131 25.5565 33.2003 25.5565C31.6644 25.5565 30.1284 25.5565 28.5924 25.5565C28.3479 25.5565 28.2794 25.6299 28.2818 25.8721C28.2745 27.0558 28.2745 28.2347 28.2745 29.4087L28.2696 29.4038ZM51.0425 20.4522C51.0991 20.5478 51.1182 20.6611 51.0963 20.7701C51.0963 21.543 51.0963 22.3159 51.0963 23.0863C51.0963 23.7124 50.9984 23.5999 51.6441 23.6219C51.8349 23.6219 51.8887 23.5706 51.8887 23.3773C51.8887 22.0387 51.8887 20.6992 51.8887 19.3589C51.8887 19.1754 51.8496 19.1143 51.6441 19.1143C50.7539 19.1143 50.7563 19.0972 50.4701 19.9361C50.184 20.775 49.8783 21.6481 49.5628 22.5604C49.2326 21.6433 48.922 20.7799 48.6113 19.919C48.5184 19.6744 48.4891 19.3246 48.3081 19.1852C48.1271 19.0458 47.7626 19.1583 47.4814 19.129C47.2539 19.1045 47.183 19.1803 47.1854 19.4176C47.1977 20.6698 47.1854 21.9196 47.1854 23.1719C47.1854 23.6464 47.1854 23.6317 47.6746 23.661C47.9192 23.661 47.9877 23.5877 47.9852 23.3455C47.973 22.5042 47.9852 21.6653 47.9852 20.8239C47.9852 20.7236 47.9852 20.6258 47.9999 20.506C48.0713 20.5593 48.1195 20.6382 48.1344 20.7261C48.4646 21.6237 48.8094 22.5164 49.1127 23.4165C49.2179 23.7173 49.4307 23.6292 49.6312 23.661C49.8318 23.6928 49.9052 23.6023 49.9663 23.4165C50.1644 22.8344 50.3797 22.2572 50.5875 21.6799L51.0425 20.4522ZM41.2103 21.0171C41.2103 20.4693 41.2103 19.9214 41.2103 19.3736C41.2103 19.1779 41.1712 19.0996 40.9658 19.1021C40.1505 19.1151 39.3352 19.1151 38.52 19.1021C38.3023 19.1021 38.2558 19.1779 38.2754 19.3736C38.2934 19.8529 38.2738 20.333 38.2167 20.8092C38.1659 21.4519 38.0252 22.0842 37.7984 22.6876C37.7373 22.8393 37.659 22.9322 37.4756 22.9077C37.2922 22.8833 37.231 22.9664 37.2457 23.1523C37.2457 23.5436 37.2457 23.935 37.2457 24.3263C37.2457 24.7176 37.2457 24.7421 37.6541 24.7396C38.0993 24.7396 38.0406 24.7812 38.0455 24.3483C38.0561 24.2116 38.0561 24.0742 38.0455 23.9374C38.0039 23.6635 38.1262 23.6146 38.3732 23.6219C39.0287 23.639 39.6842 23.6219 40.3298 23.6219C40.9144 23.6219 40.9144 23.6219 40.9144 24.1991C40.9144 24.7763 40.9144 24.7348 41.4574 24.7396C41.6775 24.7396 41.7191 24.6516 41.7142 24.4608C41.7142 24.0304 41.7019 23.5999 41.7142 23.1694C41.7142 22.9591 41.6457 22.8808 41.4451 22.9126C41.2446 22.9444 41.2006 22.8539 41.2006 22.668C41.2201 22.1153 41.2128 21.5674 41.2103 21.0196V21.0171ZM55.5868 29.3744C55.5868 30.5558 55.5868 31.7395 55.5868 32.9209C55.5868 33.1654 55.6601 33.2241 55.8852 33.207C56.1294 33.188 56.3747 33.188 56.6189 33.207C56.8782 33.229 56.9638 33.1581 56.9613 32.8768C56.9466 31.1183 56.9613 29.3598 56.9613 27.6012C56.9613 27.0045 56.9613 26.4101 56.9613 25.8134C56.9613 25.6177 56.9002 25.5688 56.7167 25.5688C56.4537 25.5868 56.1898 25.5868 55.9267 25.5688C55.6822 25.5468 55.5941 25.6201 55.5966 25.8867C55.5966 27.0558 55.5892 28.2151 55.5892 29.3769L55.5868 29.3744ZM58.9889 21.3742C58.9889 20.7008 58.9889 20.0266 58.9889 19.3515C58.9889 19.2219 59.0084 19.107 58.8054 19.107C58.0913 19.107 57.3795 19.0923 56.6654 19.1216C56.374 19.1174 56.0908 19.2173 55.8666 19.4034C55.6424 19.5895 55.492 19.8495 55.4425 20.1366C55.3698 20.4286 55.4038 20.7368 55.5383 21.0059C55.6729 21.2749 55.8991 21.4871 56.1762 21.6041C56.3523 21.6873 56.3327 21.746 56.2374 21.8781C55.9585 22.2547 55.6862 22.6363 55.4205 23.0227C55.2957 23.2037 55.0169 23.3969 55.1098 23.5681C55.2028 23.7393 55.5232 23.5926 55.7409 23.6195C55.8313 23.635 55.9243 23.6208 56.0059 23.5789C56.0875 23.537 56.1533 23.4697 56.1933 23.3871C56.4379 22.9982 56.7387 22.6534 56.9613 22.2474C57.0356 22.073 57.1674 21.9294 57.3347 21.8404C57.502 21.7513 57.6948 21.7224 57.8809 21.7582C58.0864 21.7827 58.1769 21.8096 58.1646 22.037C58.1451 22.377 58.1646 22.7194 58.1646 23.0618C58.1646 23.617 58.1646 23.6048 58.7247 23.6146C58.9522 23.6146 59.0036 23.5412 58.9987 23.3284C58.984 22.6876 58.9913 22.0321 58.9913 21.3791L58.9889 21.3742ZM28.9862 20.9413C28.9862 20.5353 28.9862 20.1 28.9862 19.6646C28.9862 19.107 28.9862 19.1192 28.4335 19.1045C28.1889 19.1045 28.1375 19.1705 28.14 19.4005C28.14 20.6234 28.14 21.8242 28.14 23.0374C28.14 23.6415 28.14 23.6415 28.749 23.6244H28.7783C28.9324 23.6439 28.9887 23.5754 28.9838 23.4238C28.9981 23.1794 28.9981 22.9344 28.9838 22.6901C28.9532 22.4983 28.9766 22.3018 29.0513 22.1225C29.126 21.9433 29.2492 21.7883 29.4069 21.6751C29.5561 21.5454 29.6221 21.5308 29.7346 21.7068C30.033 22.1642 30.3901 22.5898 30.6469 23.0692C30.7287 23.2777 30.8833 23.4496 31.082 23.553C31.2807 23.6565 31.5102 23.6844 31.728 23.6317C31.8111 23.617 31.9261 23.6733 31.9725 23.5975C32.019 23.5216 31.9334 23.4189 31.8796 23.3529C31.4198 22.6974 30.9551 22.0444 30.4928 21.3962C30.17 20.9364 30.1724 20.9364 30.5735 20.5402C30.9747 20.144 31.366 19.7551 31.7573 19.3589C31.8111 19.3051 31.9505 19.2268 31.8136 19.1436C31.6106 19.0238 30.867 19.1803 30.6934 19.3466C30.1308 19.8603 29.561 20.3959 28.9862 20.9413ZM42.739 21.3595C42.739 22.015 42.739 22.6705 42.739 23.3162C42.739 23.5363 42.7805 23.6219 43.0251 23.617C43.935 23.6023 44.8448 23.5975 45.7546 23.617C46.0408 23.617 46.0481 23.4849 46.0335 23.2795C46.0188 23.0741 46.1093 22.8906 45.7693 22.9028C45.1041 22.9273 44.4388 22.9028 43.7735 22.9028C43.6072 22.9028 43.5485 22.8539 43.5559 22.6876C43.5559 22.4039 43.5681 22.1202 43.5559 21.8365C43.5559 21.653 43.6146 21.5919 43.8004 21.6066C44.3874 21.6066 44.9744 21.5919 45.5614 21.6066C45.8549 21.6188 45.806 21.4525 45.806 21.2764C45.806 21.1003 45.872 20.9046 45.5614 20.9169C44.9744 20.9413 44.3874 20.9169 43.8004 20.9169C43.6195 20.9169 43.5559 20.8582 43.5559 20.6723C43.572 20.4573 43.572 20.2415 43.5559 20.0266C43.5339 19.7967 43.6292 19.7502 43.8396 19.7551C44.407 19.7673 44.9744 19.7551 45.5516 19.7551C46.0408 19.7551 45.9797 19.8603 45.9968 19.3002C45.9968 19.107 45.9405 19.0556 45.7522 19.0556C44.8424 19.0556 43.9325 19.0556 43.0227 19.0556C42.7903 19.0556 42.7487 19.1339 42.7536 19.3418C42.7439 20.0461 42.7365 20.6967 42.7365 21.3571L42.739 21.3595ZM34.6336 19.1167C34.4306 19.1388 34.1982 19.0165 34.0735 19.3613C33.621 20.5989 33.1294 21.8242 32.6549 23.0545C32.4324 23.6317 32.4324 23.6317 33.0829 23.6317C33.1498 23.6419 33.2181 23.626 33.2736 23.5873C33.3291 23.5486 33.3677 23.4901 33.3813 23.4238C33.4645 23.1621 33.5721 22.9102 33.6601 22.6509C33.6727 22.5844 33.7105 22.5253 33.7657 22.4861C33.8209 22.4469 33.8891 22.4306 33.9561 22.4406C34.2398 22.4553 34.5235 22.4406 34.8072 22.4406C35.4823 22.4406 35.4725 22.4406 35.7097 23.0741C35.9543 23.7515 35.7709 23.595 36.4973 23.6244C36.7419 23.6244 36.7834 23.5706 36.6954 23.3455C36.1915 22.0639 35.6926 20.7799 35.2083 19.4885C35.1032 19.2072 34.9882 19.0116 34.6336 19.1167ZM25.1145 19.1167C24.7501 19.0042 24.6058 19.1926 24.4884 19.5154C24.0457 20.7139 23.5761 21.9025 23.1163 23.0961C22.9182 23.6121 22.9206 23.5975 23.4709 23.6195C23.5176 23.6286 23.5657 23.628 23.6122 23.6179C23.6587 23.6078 23.7027 23.5882 23.7413 23.5605C23.78 23.5328 23.8127 23.4975 23.8372 23.4568C23.8618 23.416 23.8778 23.3707 23.8843 23.3235C23.9528 23.0789 24.0604 22.849 24.1435 22.6094C24.1553 22.5548 24.1867 22.5064 24.2318 22.4735C24.2769 22.4405 24.3325 22.4254 24.3881 22.4308C24.6816 22.4308 24.9751 22.4308 25.2661 22.4308C25.9339 22.4308 25.9339 22.4308 26.1662 23.0643C26.3692 23.6219 26.3692 23.6121 26.9782 23.617C27.2008 23.617 27.2448 23.5706 27.1592 23.3553C26.6505 22.0664 26.1466 20.775 25.6624 19.4787C25.5841 19.1999 25.4545 19.0165 25.1194 19.1265L25.1145 19.1167ZM53.3048 21.362C53.3048 21.9294 53.3048 22.5001 53.3048 23.0741C53.3048 23.6317 53.3048 23.617 53.8576 23.6317C54.1022 23.6317 54.1413 23.5412 54.1413 23.3284C54.1413 22.1055 54.1413 20.9046 54.1413 19.6915C54.1413 19.1021 54.1413 19.1119 53.5592 19.107C53.3415 19.107 53.3024 19.1828 53.3146 19.3784C53.3171 20.0413 53.3097 20.6967 53.3097 21.3693L53.3048 21.362Z" fill="white"/>
<path d="M22.6687 39.5686C22.4309 39.6956 22.1623 39.7532 21.8933 39.7349C20.4528 39.8621 18.6869 38.8691 18.0388 37.5728C17.7502 36.9981 17.8089 36.641 18.2149 36.1494C19.0636 35.1295 20.1593 34.9583 21.3748 35.22C22.6082 35.5234 23.8006 35.9742 24.9261 36.5627C25.9125 37.0573 26.9268 37.4943 27.9638 37.8712C28.8258 38.1717 29.5974 38.6859 30.2066 39.3656C31.3971 40.61 32.4462 41.9823 33.3348 43.4574C34.336 45.2756 34.999 47.2603 35.2915 49.3151C35.536 50.8291 35.6803 52.3553 35.7806 53.8863C35.8198 54.5222 36.2233 54.9796 36.6097 55.4321C37.2579 56.1927 37.999 56.8629 38.6985 57.5771C39.4101 58.2492 40.0332 59.0095 40.5524 59.8394C40.697 60.0937 40.8142 60.3626 40.9021 60.6416C40.9198 60.6731 40.9303 60.7082 40.9329 60.7442C40.9354 60.7803 40.93 60.8164 40.9169 60.8501C40.9038 60.8838 40.8834 60.9141 40.8571 60.939C40.8309 60.9638 40.7995 60.9826 40.7652 60.9938C39.6139 61.5928 38.3162 61.8524 37.0231 61.7423C33.8656 61.4757 31.3072 60.0131 29.1794 57.736C29.0091 57.5487 28.8014 57.3992 28.5697 57.2972C28.3379 57.1952 28.0874 57.1431 27.8342 57.1441C27.1005 57.1197 26.3887 57.2297 25.6648 57.22C25.2341 57.2489 24.8039 57.1574 24.4223 56.9558C24.3025 56.8824 24.141 56.8091 24.1631 56.633C24.1851 56.4569 24.3416 56.4129 24.4761 56.3566C24.9005 56.2082 25.3451 56.1258 25.7944 56.112C27.0423 56.0006 28.2982 56.012 29.5438 56.1463C29.7079 56.1686 29.8649 56.227 30.0036 56.3175C31.2412 57.0512 32.491 57.7849 33.8704 58.2521C34.5137 58.4649 35.179 58.6165 35.8564 58.438C36.4703 58.2766 36.5095 58.2766 36.2086 57.6847C35.9078 57.0928 35.4749 56.6794 35.0787 56.1903C34.5895 55.5642 34.1346 54.916 34.0759 54.082C34.019 53.3228 33.9095 52.5685 33.7482 51.8245C33.205 49.4321 32.1169 47.1973 30.5686 45.2942C29.7773 44.3031 28.9297 43.3582 28.0299 42.4644C27.9629 42.3788 27.8694 42.3178 27.764 42.2913C27.6586 42.2647 27.5473 42.274 27.4478 42.3177C25.7616 42.9193 24.1791 43.779 22.7567 44.8662C20.2789 46.6983 18.0977 48.9008 16.29 51.3965C14.9628 53.2268 13.4703 54.9313 11.8313 56.4887C10.5486 57.74 9.05277 58.7521 7.41419 59.4774C6.39429 59.9055 5.79996 59.5141 5.21297 58.7437C5.0222 58.4991 5.06867 58.4331 5.37929 58.3768C7.34816 58.0222 9.18496 57.3618 10.738 56.046C11.3014 55.5596 11.7886 54.9916 12.1835 54.3608C13.6314 52.1082 15.0475 49.8385 16.5346 47.6006C17.8705 45.6214 19.5426 43.8914 21.4751 42.4889C22.8485 41.4687 24.2991 40.5569 25.814 39.7618C25.9094 39.7129 26.0977 39.6836 25.9094 39.5172C24.547 38.2479 23.0845 37.135 21.2941 36.5309C20.8167 36.3475 20.2949 36.3125 19.7973 36.4306C19.6073 36.4817 19.4337 36.5812 19.2935 36.7192C19.1684 36.8177 19.0871 36.9613 19.0669 37.1191C19.0468 37.277 19.0895 37.4364 19.1858 37.563C19.4346 37.9163 19.7598 38.2089 20.1373 38.4191C20.9288 38.9083 21.7794 39.2946 22.6687 39.5686Z" fill="white"/>
<path d="M27.5774 55.2612C24.9066 55.2123 22.3214 55.7503 19.7508 56.4034C16.923 57.0983 14.2132 58.2068 11.709 59.693C9.53226 61.0088 7.14027 61.7206 4.66022 62.1999C3.06556 62.5081 1.70814 61.9431 0.384956 61.18C0.272158 61.1035 0.170152 61.0122 0.0816767 60.9085C0.043413 60.8766 0.0167038 60.833 0.00565645 60.7844C-0.0053909 60.7358 -0.000164622 60.6849 0.0205316 60.6395C0.0743392 60.5294 0.177063 60.5368 0.265112 60.549C0.856996 60.6175 1.44643 60.6958 2.03832 60.7569C3.3884 60.8988 4.74338 61.0651 6.08123 60.6664C7.11336 60.3607 8.03788 59.8128 8.94038 59.2625C10.9313 58.0641 12.9124 56.8461 14.9179 55.6696C17.4536 54.2142 20.212 53.187 23.082 52.6295C24.9254 52.233 26.8026 52.0143 28.6878 51.9765C28.7309 51.9825 28.7748 51.9798 28.8168 51.9684C28.8589 51.9571 28.8982 51.9374 28.9324 51.9104C29.3408 51.5313 29.7762 51.1767 30.1724 50.7903C30.3583 50.6068 30.2971 50.4185 30.2556 50.2204C29.9999 49.1492 29.5791 48.1244 29.0082 47.1827C28.5019 46.312 27.9198 45.4902 27.3597 44.6537C27.1671 44.3942 27.0031 44.1145 26.8706 43.8197C26.7581 43.536 26.8363 43.4333 27.1396 43.4602C27.4023 43.4993 27.647 43.6169 27.8415 43.7977C28.6071 44.4116 29.1721 45.1992 29.7321 45.9989C31.0689 47.8215 32.0793 49.8623 32.7185 52.0303C32.9631 52.9059 32.919 53.0379 32.178 53.5418C31.2596 54.1538 30.2947 54.6927 29.2919 55.1536C29.1064 55.2408 28.9024 55.282 28.6976 55.2734C28.3209 55.2538 27.9492 55.2612 27.5774 55.2612Z" fill="white"/>
<path d="M43.4531 3.57617C43.2942 4.0135 43.0618 4.42047 42.7658 4.77951C42.7047 4.86756 42.6313 4.94582 42.5653 5.02409C42.3743 5.29696 42.1168 5.51655 41.8172 5.66208C41.5176 5.8076 41.1858 5.87423 40.8532 5.85566C40.4912 5.85196 40.1292 5.87157 39.7697 5.91436C39.2806 5.95838 38.9602 6.28368 38.6251 6.57962C37.2481 7.80252 36.0766 9.22842 34.7974 10.5467C34.4354 10.9185 34.0637 11.2805 33.7017 11.6473C33.1416 12.2392 32.4396 12.3811 31.6814 12.4178C30.5784 12.4642 29.4802 12.4593 28.3674 12.4862C26.1662 12.54 23.9796 12.7137 21.8395 13.2909C20.0908 13.7629 18.5377 14.5578 17.3368 15.9446C15.8693 17.6567 15.1185 19.6255 15.2799 21.9026C15.3614 22.4856 15.5374 23.0515 15.8008 23.578C16.4628 25.1759 17.1208 26.7754 17.7746 28.3766C18.3324 29.7062 18.588 31.143 18.523 32.5834C18.4986 33.141 18.4448 33.5397 17.8578 33.7916C17.2708 34.0435 16.899 34.5498 16.4637 35.0439C16.4637 34.9265 16.4637 34.8384 16.4637 34.7504C16.6153 33.3318 16.6789 31.9059 16.74 30.4825C16.7987 29.1152 16.427 27.8557 15.8913 26.6254C15.4022 25.4979 14.8739 24.3851 14.441 23.2306C14.0058 22.0197 13.9127 20.7123 14.1719 19.4519C14.521 17.2889 15.5895 15.3069 17.2047 13.8265C18.2466 12.8702 19.5062 12.3028 20.827 11.8479C22.6514 11.2277 24.5476 10.843 26.4694 10.7032C27.8146 10.5989 29.1615 10.5418 30.5099 10.532C31.1067 10.532 31.701 10.5002 32.2978 10.4733C33.0071 10.444 33.5354 10.0209 34.0637 9.61975C35.021 8.86068 35.9347 8.04819 36.8005 7.18618C37.593 6.43042 38.3829 5.67223 39.195 4.94093C39.6132 4.56428 40.0901 4.54716 40.5817 4.51047C41.56 4.43954 42.5212 4.25366 43.3186 3.60797C43.3619 3.59178 43.4071 3.5811 43.4531 3.57617Z" fill="white"/>
<path d="M26.873 9.2554C27.8232 9.23436 28.7688 9.11717 29.6954 8.90565C30.0893 8.83047 30.471 8.70212 30.8303 8.5241C31.1605 8.34556 31.2021 8.09853 30.9575 7.80748C30.7365 7.58119 30.4392 7.44519 30.1235 7.42594C29.2601 7.28897 28.4114 7.41126 27.5578 7.53844C26.1955 7.739 24.8234 7.88575 23.4904 8.24773C21.2341 8.85332 19.1438 9.96116 17.3759 11.4884C15.7128 12.9241 14.6758 14.7731 13.9004 16.8007C12.8659 19.5253 12.5675 22.3551 12.6996 25.2436C12.7974 27.3812 13.0933 29.5018 13.3673 31.6223C13.6118 33.5593 13.8564 35.4964 13.9371 37.4531C14.0325 39.8842 14.1817 42.3129 14.3211 44.7416C14.3578 45.4239 14.392 46.1063 14.4385 46.7911C14.4527 46.9566 14.4066 47.1216 14.3089 47.2558C13.9983 47.7059 13.6974 48.1632 13.3917 48.6182C13.355 48.672 13.311 48.7209 13.2499 48.7967C13.1633 48.4367 13.1311 48.0657 13.1545 47.6961C13.0689 45.6661 13.0126 43.6336 12.9099 41.6036C12.861 40.7451 12.8365 39.8915 12.8096 39.0257C12.768 37.5582 12.6335 36.0908 12.4794 34.6453C12.2911 32.8867 12.1126 31.1307 11.9242 29.3721C11.7775 27.9927 11.6992 26.6059 11.6601 25.2143C11.5402 20.9708 12.4354 16.9866 14.666 13.3374C15.6443 11.7257 17.0335 10.5272 18.5964 9.50242C20.2004 8.48713 21.9716 7.76422 23.828 7.36724C25.35 7.01202 26.8957 6.76681 28.453 6.6335C29.4851 6.54545 30.5221 6.49898 31.5371 6.80226C31.8871 6.89536 32.1998 7.0944 32.4323 7.37213C32.5247 7.46502 32.5949 7.57763 32.6377 7.70151C32.6804 7.8254 32.6945 7.95735 32.679 8.08747C32.6634 8.21759 32.6187 8.34251 32.548 8.45286C32.4773 8.56321 32.3826 8.65613 32.2709 8.72466C31.586 9.23094 30.7863 9.4584 29.9767 9.65162C29.6822 9.72076 29.3842 9.77383 29.084 9.8106C28.7269 9.87654 28.3585 9.84182 28.0201 9.71032C27.6679 9.55868 27.2961 9.46329 26.873 9.2554Z" fill="white"/>
<path d="M35.02 5.37865C33.5183 5.35664 31.9163 5.40311 30.3167 5.50094C27.6728 5.66481 25.0362 5.92407 22.5048 6.76787C20.5919 7.43514 18.8088 8.42808 17.2341 9.70283C16.5004 10.2752 15.8204 10.9062 15.1332 11.5274C15.006 11.6424 14.8886 11.7231 14.7223 11.591C14.6852 11.5664 14.6534 11.5346 14.6287 11.4976C14.604 11.4605 14.5869 11.4189 14.5785 11.3752C14.5701 11.3315 14.5704 11.2865 14.5796 11.2429C14.5887 11.1994 14.6065 11.158 14.6318 11.1214C14.6978 11.0021 14.7801 10.8927 14.8764 10.7961C16.7572 9.04002 18.8166 7.53096 21.1816 6.51106C22.7152 5.84825 24.3612 5.53274 25.995 5.27348C28.3134 4.9248 30.6512 4.72059 32.9949 4.66203C34.1469 4.62535 35.2988 4.55686 36.4484 4.51284C36.5594 4.5146 36.6688 4.48647 36.7652 4.43139C36.8616 4.37631 36.9414 4.29631 36.9962 4.19978C37.259 3.7732 37.6195 3.41524 38.0479 3.15542C38.2398 3.03649 38.454 2.95802 38.6773 2.92479C38.9007 2.89157 39.1284 2.9043 39.3466 2.9622C39.9679 3.12851 40.6087 3.07471 41.2397 3.1383C41.3375 3.1383 41.4353 3.1383 41.5307 3.16276C41.7411 3.20189 41.7606 3.32173 41.6335 3.47093C41.4587 3.65751 41.2363 3.79282 40.9902 3.86225C40.4024 4.04369 39.8036 4.18747 39.1974 4.29272C38.897 4.34429 38.6229 4.49601 38.4197 4.72318C38.2259 4.96332 37.9744 5.15034 37.6886 5.2667C37.4029 5.38306 37.0923 5.42495 36.7859 5.38844C36.2405 5.34441 35.6804 5.37865 35.02 5.37865Z" fill="white"/>
<path d="M15.5 45.3995C15.5122 43.0393 15.8155 40.7011 16.0821 38.3066C16.3071 38.6515 16.4808 38.9597 16.6936 39.2409C17.1192 39.8023 17.632 40.292 18.2124 40.6913C18.273 40.7218 18.3226 40.7705 18.3542 40.8306C18.3858 40.8907 18.3978 40.9591 18.3885 41.0264C18.3871 41.0459 18.3871 41.0655 18.3885 41.0851C18.3885 41.496 18.5157 41.9509 18.3738 42.308C18.232 42.6651 17.8284 42.873 17.5422 43.1518C16.8364 43.8289 16.19 44.5654 15.6101 45.353C15.5929 45.3677 15.5807 45.3995 15.5 45.3995Z" fill="white"/>
<path d="M21.1278 58.7876C21.0177 58.6115 20.9443 58.5014 20.8832 58.3865C20.8538 58.3351 20.778 58.2642 20.8832 58.2275C20.9884 58.1908 21.0642 58.1908 21.0764 58.3229C21.0886 58.455 21.1058 58.5821 21.1278 58.7876Z" fill="#E7589A"/>
<path d="M47.6721 29.3844C47.6721 28.23 47.6721 27.0756 47.6721 25.9236C47.6721 25.6326 47.7602 25.5494 48.0365 25.5739C48.27 25.5962 48.505 25.5962 48.7385 25.5739C48.9831 25.5494 49.0418 25.6546 49.0418 25.8894C49.0418 27.8264 49.0418 29.7611 49.0418 31.6981C49.0418 31.9672 49.1103 32.043 49.3793 32.0381C50.3087 32.021 51.2381 32.0185 52.1651 32.0381C52.461 32.0381 52.5124 31.9476 52.5099 31.6761C52.5099 29.7488 52.5099 27.824 52.4977 25.8967C52.4977 25.6301 52.576 25.5543 52.8303 25.5739C53.0843 25.5939 53.3394 25.5939 53.5934 25.5739C53.8233 25.5567 53.8698 25.6472 53.8698 25.86C53.8698 27.8167 53.8698 29.7513 53.8698 31.6981C53.8698 31.9696 53.9407 32.0479 54.2098 32.0381C54.7234 32.0185 54.7234 32.0381 54.7234 32.5444C54.7234 33.3173 54.7234 34.0901 54.7234 34.863C54.7234 35.0538 54.6671 35.1247 54.4788 35.1076C54.2049 35.0954 53.9309 35.0954 53.657 35.1076C53.454 35.1076 53.3806 35.0513 53.388 34.841C53.4026 34.4008 53.388 33.9605 53.388 33.5203C53.388 33.2757 53.339 33.1901 53.07 33.1925C51.3873 33.2072 49.707 33.1925 48.0243 33.2048C47.7602 33.2048 47.6795 33.1412 47.6843 32.8672C47.6819 31.703 47.6721 30.5486 47.6721 29.3844Z" fill="#151515"/>
<path d="M64.3232 29.4134C64.3232 30.5874 64.3232 31.7589 64.3232 32.9329C64.3232 33.1628 64.2645 33.2484 64.0297 33.2337C63.756 33.2176 63.4816 33.2176 63.2079 33.2337C62.9951 33.2337 62.9217 33.1775 62.9266 32.9525C62.9413 32.0915 62.9266 31.2404 62.9266 30.3721C62.9266 30.1422 62.8704 30.0664 62.6356 30.0786C62.2467 30.1007 61.8065 29.9833 61.4787 30.1276C61.151 30.2719 61.0067 30.7268 60.7841 31.0447C60.3243 31.6969 59.871 32.3573 59.4242 33.0258C59.3875 33.0934 59.3318 33.1489 59.264 33.1853C59.1963 33.2218 59.1194 33.2378 59.0427 33.2313C58.6612 33.2313 58.2796 33.2313 57.8981 33.2313C57.8149 33.2313 57.7024 33.2729 57.6535 33.1848C57.6046 33.0968 57.7048 33.0283 57.7538 32.9598C58.4068 32.0451 59.0525 31.1254 59.7104 30.2205C59.8669 30.0077 59.8669 29.9368 59.6003 29.8341C59.2272 29.7056 58.9015 29.4672 58.6663 29.1503C58.431 28.8334 58.2971 28.4528 58.2821 28.0584C58.2111 27.217 58.4043 26.4809 59.1601 25.9917C59.6311 25.7059 60.1747 25.5623 60.7254 25.5784C61.8211 25.5784 62.9266 25.5784 64.0101 25.5784C64.2547 25.5784 64.3061 25.6493 64.3061 25.8767C64.3159 27.0556 64.3232 28.2321 64.3232 29.4134ZM62.9364 27.8823C62.9364 27.5497 62.9364 27.217 62.9364 26.8869C62.9364 26.7792 62.9364 26.6936 62.7848 26.6985C62.0241 26.7181 61.261 26.6472 60.5028 26.7499C60.3558 26.7618 60.214 26.81 60.0901 26.8903C59.9663 26.9705 59.8644 27.0803 59.7936 27.2097C59.6872 27.3897 59.6296 27.5942 59.6264 27.8032C59.6232 28.0122 59.6745 28.2184 59.7752 28.4016C59.8759 28.5847 60.0226 28.7385 60.2008 28.8477C60.379 28.9569 60.5825 29.0179 60.7914 29.0245C61.4445 29.0538 62.1 29.0245 62.7481 29.0245C62.8875 29.0245 62.9364 28.9829 62.934 28.8411C62.9291 28.5231 62.9364 28.2052 62.9364 27.8823Z" fill="#151515"/>
<path d="M47.0387 33.2048C46.5666 33.2048 46.1288 33.2048 45.6935 33.2048C45.5541 33.2048 45.5467 33.0923 45.5174 33.0091C45.329 32.4955 45.1383 31.9843 44.9695 31.4658C44.9517 31.3768 44.8998 31.2983 44.8248 31.2471C44.7498 31.1959 44.6578 31.1761 44.5684 31.1919C43.7776 31.2066 42.986 31.2066 42.1935 31.1919C42.1449 31.1819 42.0947 31.1817 42.0459 31.1912C41.9971 31.2006 41.9507 31.2197 41.9094 31.2472C41.868 31.2747 41.8325 31.3101 41.8048 31.3514C41.7772 31.3927 41.758 31.4391 41.7484 31.4878C41.5845 31.999 41.3815 32.4955 41.203 32.9993C41.1893 33.065 41.151 33.1229 41.096 33.1611C41.0409 33.1993 40.9733 33.215 40.907 33.2048C40.5279 33.1925 40.1464 33.2048 39.7233 33.2048L40.4277 31.3753C41.1369 29.5385 41.8511 27.7066 42.5506 25.8625C42.6338 25.6448 42.7292 25.5494 42.9688 25.569C43.2415 25.5914 43.5155 25.5914 43.7882 25.569C43.8822 25.5503 43.9799 25.5696 44.0597 25.6228C44.1395 25.676 44.1949 25.7587 44.2138 25.8527C44.9671 27.8289 45.7326 29.8002 46.4957 31.774C46.6718 32.2411 46.8479 32.7034 47.0387 33.2048ZM43.3846 27.0414C43.0031 28.0686 42.6509 29.0102 42.3036 29.9494C42.2449 30.1059 42.2791 30.1573 42.4454 30.1549C42.8857 30.1549 43.3259 30.1549 43.7637 30.1549C43.9863 30.1549 44.3238 30.2307 44.4094 30.1182C44.5366 29.9543 44.3214 29.6951 44.248 29.4823C43.9814 28.6898 43.683 27.9072 43.3846 27.0414Z" fill="#151515"/>
<path d="M34.2887 29.4011C34.2887 28.2173 34.2887 27.0336 34.2887 25.8498C34.2887 25.6884 34.2887 25.5685 34.5137 25.5734C35.7146 25.6028 36.9204 25.5269 38.1213 25.6174C39.4958 25.7202 40.3054 26.6227 40.276 28.0045C40.284 28.3016 40.2317 28.5972 40.1223 28.8736C40.013 29.1499 39.8488 29.4013 39.6397 29.6124C39.4306 29.8236 39.1808 29.9902 38.9056 30.1023C38.6303 30.2144 38.3352 30.2695 38.0381 30.2645C37.3337 30.2889 36.6293 30.2816 35.9249 30.2645C35.7024 30.2645 35.6437 30.3305 35.6461 30.5482C35.6583 31.3504 35.6461 32.1526 35.6461 32.9548C35.6461 33.1481 35.5874 33.1994 35.4015 33.1994C35.1279 33.1808 34.8533 33.1808 34.5797 33.1994C34.3205 33.2214 34.2495 33.1138 34.2862 32.8815C34.287 32.8717 34.287 32.8619 34.2862 32.8521C34.2879 31.7059 34.2887 30.5555 34.2887 29.4011ZM35.6534 27.9336C35.6534 28.2858 35.6534 28.6356 35.6534 28.9878C35.6534 29.1198 35.6877 29.1859 35.8344 29.181C36.5168 29.159 37.2016 29.2201 37.8816 29.1394C38.1531 29.1306 38.4113 29.0201 38.6052 28.8298C38.7991 28.6396 38.9144 28.3834 38.9284 28.1122C38.9773 27.3637 38.7009 26.9284 38.0283 26.7914C37.2946 26.6398 36.529 26.7498 35.7806 26.7254C35.6265 26.7254 35.6583 26.8477 35.6559 26.9382C35.651 27.2806 35.6534 27.6108 35.6534 27.9434V27.9336Z" fill="#151515"/>
<path d="M28.2745 29.4088C28.2745 28.2348 28.2745 27.0608 28.2745 25.8868C28.2745 25.6422 28.3381 25.5713 28.5851 25.5713C30.1211 25.5827 31.657 25.5827 33.193 25.5713C33.4058 25.5713 33.4987 25.6202 33.4767 25.8477C33.4589 26.0625 33.4589 26.2785 33.4767 26.4934C33.4938 26.7012 33.4131 26.7575 33.2126 26.7575C32.1364 26.7575 31.0603 26.7575 29.9841 26.7575C29.7102 26.7575 29.6393 26.8358 29.6417 27.1024C29.6417 29.0394 29.6417 30.9765 29.6417 32.9136C29.6417 33.1582 29.5757 33.2413 29.3335 33.2218C29.0698 33.2019 28.8049 33.2019 28.5411 33.2218C28.3161 33.2389 28.2623 33.1557 28.2623 32.9405C28.2745 31.7567 28.2745 30.5827 28.2745 29.4088Z" fill="#151515"/>
<path d="M51.0425 20.4518L50.6096 21.6478C50.4017 22.2274 50.1864 22.8022 49.9883 23.3843C49.9272 23.5604 49.844 23.6289 49.6533 23.6289C49.4625 23.6289 49.2399 23.6949 49.1347 23.3843C48.8217 22.4793 48.4793 21.5866 48.1564 20.6939C48.1415 20.606 48.0933 20.5272 48.0219 20.4738C48.0219 20.5936 48.0097 20.6939 48.0072 20.7917C48.0072 21.6331 48.0072 22.4745 48.0072 23.3134C48.0072 23.5579 47.9485 23.6362 47.6966 23.6289C47.2075 23.6118 47.2075 23.6289 47.2075 23.1397C47.2075 21.8875 47.2075 20.6377 47.2075 19.3854C47.2075 19.1408 47.2759 19.0748 47.5034 19.0968C47.7822 19.1262 48.132 18.9867 48.3301 19.1531C48.5282 19.3194 48.5404 19.6422 48.6334 19.8868C48.944 20.7502 49.2546 21.6111 49.5848 22.5283C49.9003 21.616 50.1987 20.7624 50.4922 19.9039C50.7857 19.0454 50.7734 19.0699 51.6662 19.0821C51.8667 19.0821 51.9107 19.1555 51.9107 19.3267C51.9107 20.6654 51.9107 22.0049 51.9107 23.3452C51.9107 23.5408 51.8496 23.5897 51.6662 23.5897C51.0205 23.5677 51.1232 23.6802 51.1183 23.0541C51.1183 22.2812 51.1183 21.5084 51.1183 20.7379C51.126 20.6367 51.0993 20.5359 51.0425 20.4518Z" fill="#151515"/>
<path d="M41.2128 21.0196C41.2128 21.5675 41.2128 22.1153 41.2128 22.6632C41.2128 22.8515 41.2593 22.9396 41.4574 22.9078C41.6555 22.876 41.7338 22.9567 41.7264 23.1646C41.7117 23.5951 41.7264 24.0255 41.7264 24.456C41.7264 24.6468 41.6897 24.7372 41.4696 24.7348C40.9266 24.7348 40.9266 24.7348 40.9266 24.1943C40.9266 23.6538 40.9266 23.6171 40.3421 23.6171C39.6866 23.6171 39.0311 23.6171 38.3855 23.6171C38.1409 23.6171 38.0161 23.6611 38.0577 23.9326C38.0684 24.0693 38.0684 24.2067 38.0577 24.3435C38.0577 24.7764 38.1115 24.7324 37.6664 24.7348C37.2579 24.7348 37.2579 24.7348 37.2579 24.3215C37.2579 23.9081 37.2579 23.5388 37.2579 23.1475C37.2579 22.9714 37.3069 22.8833 37.4878 22.9029C37.6688 22.9225 37.752 22.8344 37.8107 22.6828C38.0374 22.0793 38.1782 21.447 38.2289 20.8044C38.286 20.3281 38.3057 19.8481 38.2876 19.3687C38.2876 19.173 38.3243 19.0948 38.5322 19.0972C39.3475 19.1103 40.1627 19.1103 40.978 19.0972C41.1932 19.0972 41.2373 19.173 41.2226 19.3687C41.203 19.9239 41.2104 20.4718 41.2128 21.0196ZM38.5738 22.9127C39.1485 22.9127 39.694 22.9127 40.2394 22.9127C40.3812 22.9127 40.3935 22.8369 40.3935 22.7268C40.3935 21.817 40.3935 20.9071 40.3935 19.9973C40.3935 19.8628 40.3592 19.8041 40.2125 19.809C39.8896 19.809 39.5668 19.809 39.2341 19.809C39.0752 19.809 39.0385 19.8677 39.036 20.0144C39.036 20.347 39.036 20.6772 38.9993 21.0098C38.937 21.6601 38.794 22.3001 38.5738 22.9151V22.9127Z" fill="#151515"/>
<path d="M55.5892 29.3767C55.5892 28.215 55.5892 27.0508 55.5892 25.889C55.5892 25.6224 55.6651 25.549 55.9194 25.5711C56.1825 25.589 56.4464 25.589 56.7094 25.5711C56.9002 25.5711 56.954 25.62 56.954 25.8156C56.954 26.4124 56.954 27.0067 56.954 27.6035C56.954 29.362 56.954 31.1206 56.954 32.8791C56.954 33.1604 56.8684 33.2313 56.6116 33.2093C56.3674 33.1903 56.1221 33.1903 55.8779 33.2093C55.6553 33.2264 55.577 33.1628 55.5795 32.9231C55.5966 31.7418 55.5892 30.5605 55.5892 29.3767Z" fill="#151515"/>
<path d="M58.9913 21.3791C58.9913 22.0345 58.9913 22.6876 58.9913 23.3357C58.9913 23.5485 58.9448 23.6268 58.7174 23.6219C58.1573 23.6219 58.1573 23.6219 58.1573 23.0691C58.1573 22.7267 58.1426 22.3843 58.1573 22.0443C58.1695 21.8169 58.079 21.7998 57.8736 21.7655C57.6875 21.7297 57.4947 21.7586 57.3274 21.8477C57.16 21.9367 57.0283 22.0803 56.954 22.2547C56.7314 22.6533 56.4306 23.008 56.186 23.3944C56.1459 23.477 56.0802 23.5443 55.9986 23.5862C55.9169 23.6281 55.8239 23.6423 55.7335 23.6268C55.5158 23.5999 55.1832 23.7246 55.1025 23.5754C55.0218 23.4262 55.2908 23.2085 55.4131 23.03C55.6789 22.6436 55.9512 22.262 56.23 21.8854C56.3254 21.7557 56.3474 21.6946 56.1689 21.6114C55.8917 21.4944 55.6655 21.2822 55.531 21.0132C55.3965 20.7441 55.3625 20.4359 55.4351 20.1439C55.4846 19.8568 55.635 19.5968 55.8592 19.4107C56.0834 19.2246 56.3667 19.1247 56.658 19.1289C57.3698 19.0996 58.0839 19.1289 58.7981 19.1143C59.0011 19.1143 58.9815 19.2341 58.9815 19.3588C58.9881 20.0306 58.9913 20.704 58.9913 21.3791ZM57.4871 19.8064C57.2181 19.8064 57.0322 19.8064 56.8464 19.8064C56.7675 19.8015 56.6886 19.8133 56.6146 19.8409C56.5407 19.8686 56.4733 19.9115 56.4171 19.9668C56.3608 20.0222 56.3168 20.0888 56.2879 20.1623C56.259 20.2358 56.246 20.3145 56.2496 20.3934C56.2265 20.56 56.27 20.7289 56.3708 20.8636C56.4715 20.9982 56.6213 21.0877 56.7876 21.1125C57.0585 21.1471 57.3319 21.1569 57.6045 21.1418C58.1671 21.1418 58.1695 21.1418 58.1646 20.5768C58.1646 20.3323 58.2405 20.0217 58.1206 19.8676C58.0008 19.7135 57.6486 19.8333 57.4871 19.804V19.8064Z" fill="#151515"/>
<path d="M28.9862 20.9412C29.5634 20.3958 30.1308 19.8601 30.6982 19.3221C30.8719 19.1582 31.6154 18.9992 31.8184 19.1191C31.9554 19.1998 31.8184 19.278 31.7622 19.3343C31.3708 19.7305 30.9762 20.1243 30.5784 20.5156C30.1797 20.9094 30.1748 20.9118 30.4977 21.3716C30.9575 22.0271 31.4222 22.6801 31.8845 23.3283C31.9383 23.4041 32.0434 23.4848 31.9774 23.5729C31.9114 23.6609 31.8135 23.5924 31.7328 23.6071C31.5163 23.6604 31.2878 23.6339 31.0892 23.5324C30.8906 23.4308 30.7353 23.2611 30.6518 23.0544C30.3925 22.5652 30.0379 22.1518 29.7395 21.692C29.6245 21.5159 29.5609 21.5306 29.4117 21.6602C29.2531 21.7729 29.129 21.9276 29.0534 22.1069C28.9778 22.2862 28.9537 22.483 28.9837 22.6753C28.9981 22.9196 28.9981 23.1646 28.9837 23.409C28.9837 23.5606 28.9324 23.6291 28.7783 23.6095H28.7636C28.1546 23.6291 28.1546 23.6291 28.1546 23.0226C28.1546 21.7997 28.1546 20.5963 28.1546 19.3856C28.1546 19.1557 28.2133 19.0848 28.4481 19.0897C29.0008 19.1044 29.0008 19.0897 29.0008 19.6498C28.9862 20.0974 28.9862 20.5352 28.9862 20.9412Z" fill="#151515"/>
<path d="M42.7365 21.3573C42.7365 20.7018 42.7365 20.0463 42.7365 19.4006C42.7365 19.1927 42.7756 19.1096 43.0055 19.1145C43.9154 19.1291 44.8252 19.1145 45.7351 19.1145C45.9258 19.1145 45.9796 19.1683 45.9796 19.359C45.9625 19.9167 46.031 19.8066 45.5345 19.814C44.9671 19.814 44.3997 19.814 43.8224 19.814C43.6121 19.814 43.5167 19.8555 43.5387 20.0854C43.5548 20.3004 43.5548 20.5162 43.5387 20.7311C43.5387 20.9097 43.5901 20.9757 43.7833 20.9757C44.3703 20.9757 44.9573 20.9904 45.5443 20.9757C45.8647 20.9635 45.7889 21.1592 45.7889 21.3353C45.7889 21.5113 45.8329 21.6777 45.5443 21.6654C44.9573 21.641 44.3703 21.6654 43.7833 21.6654C43.6072 21.6654 43.5387 21.7119 43.5387 21.8953C43.551 22.1791 43.5387 22.4628 43.5387 22.7465C43.5387 22.9128 43.5901 22.9642 43.7564 22.9617C44.4217 22.9617 45.0869 22.9764 45.7522 22.9617C46.0921 22.9495 45.9968 23.1574 46.0163 23.3384C46.0359 23.5194 46.0163 23.6808 45.7375 23.6759C44.8277 23.6563 43.9178 23.6588 43.008 23.6759C42.7634 23.6759 42.7169 23.5952 42.7218 23.375C42.7463 22.6682 42.7365 22.0127 42.7365 21.3573Z" fill="#151515"/>
<path d="M34.6335 19.1165C34.9808 19.0113 35.0958 19.2045 35.2034 19.4882C35.6925 20.7772 36.1817 22.0612 36.6904 23.3453C36.7785 23.5703 36.7345 23.6339 36.4923 23.6241C35.7586 23.5947 35.9591 23.7513 35.7048 23.0738C35.4602 22.4428 35.4773 22.4403 34.8023 22.4403C34.5186 22.4403 34.2348 22.4403 33.9511 22.4403C33.8838 22.4303 33.8153 22.447 33.76 22.4867C33.7048 22.5264 33.6672 22.5861 33.6552 22.6531C33.5671 22.9123 33.4595 23.1643 33.3764 23.426C33.3627 23.4922 33.3242 23.5508 33.2686 23.5894C33.2131 23.6281 33.1449 23.644 33.078 23.6339C32.4372 23.6339 32.4323 23.6339 32.6573 23.0567C33.1318 21.8337 33.6209 20.6108 34.0759 19.3635C34.203 19.0162 34.4378 19.1385 34.6335 19.1165ZM34.6335 19.9994L33.9683 21.8068H35.1153C35.2156 21.8068 35.267 21.7775 35.2303 21.6699L34.6335 19.9994Z" fill="#151515"/>
<path d="M25.1194 19.1262C25.452 19.0186 25.5719 19.1996 25.6795 19.4882C26.1686 20.7869 26.6578 22.0759 27.1763 23.3648C27.2619 23.58 27.2179 23.6265 26.9953 23.6265C26.3863 23.6265 26.3863 23.6265 26.1833 23.0737C25.951 22.4403 25.951 22.4403 25.2833 22.4403C24.9898 22.4403 24.6963 22.4403 24.4052 22.4403C24.3496 22.4348 24.294 22.45 24.2489 22.4829C24.2038 22.5159 24.1724 22.5642 24.1606 22.6188C24.0799 22.8634 23.9699 23.0909 23.9014 23.333C23.8954 23.3816 23.8793 23.4285 23.8541 23.4705C23.8289 23.5125 23.7951 23.5488 23.755 23.5769C23.7149 23.605 23.6693 23.6244 23.6212 23.6338C23.5731 23.6432 23.5236 23.6424 23.4758 23.6314C22.9255 23.6118 22.9231 23.6314 23.1212 23.108C23.581 21.9144 24.0506 20.7258 24.4933 19.5273C24.6058 19.1996 24.755 19.0137 25.1194 19.1262ZM25.0949 19.9945C24.8773 20.5864 24.6816 21.1244 24.481 21.6601C24.4346 21.7824 24.4688 21.8117 24.5887 21.8093C24.958 21.8093 25.3224 21.8093 25.7357 21.8093L25.0949 19.9945Z" fill="#151515"/>
<path d="M53.3097 21.3694C53.3097 20.7041 53.3097 20.0388 53.3097 19.376C53.3097 19.1804 53.3464 19.1021 53.5543 19.1045C54.1364 19.1045 54.1364 19.1045 54.1364 19.6891C54.1364 20.912 54.1364 22.1129 54.1364 23.326C54.1364 23.5412 54.1021 23.6366 53.8527 23.6293C53.2999 23.6122 53.2999 23.6293 53.2999 23.0716C53.2999 22.514 53.3097 21.9368 53.3097 21.3694Z" fill="#151515"/>
<path d="M62.9364 27.8825C62.9364 28.2053 62.9364 28.5282 62.9364 28.8608C62.9364 29.0027 62.8899 29.0443 62.7505 29.0443C62.095 29.0443 61.442 29.0614 60.7938 29.0443C60.5849 29.0376 60.3813 28.9767 60.2031 28.8675C60.0249 28.7582 59.8783 28.6045 59.7776 28.4213C59.6768 28.2382 59.6256 28.0319 59.6288 27.823C59.632 27.614 59.6896 27.4094 59.7959 27.2295C59.8668 27.1001 59.9687 26.9903 60.0925 26.91C60.2163 26.8298 60.3582 26.7815 60.5052 26.7697C61.2634 26.6669 62.0265 26.7379 62.7872 26.7183C62.9315 26.7183 62.9388 26.799 62.9388 26.9066C62.9339 27.2197 62.9364 27.545 62.9364 27.8825Z" fill="white"/>
<path d="M43.3847 27.041C43.6928 27.9068 43.979 28.6895 44.248 29.4868C44.3214 29.702 44.5366 29.9589 44.4094 30.1227C44.3238 30.2352 43.9888 30.157 43.7638 30.1594C43.3235 30.1594 42.8833 30.1594 42.4455 30.1594C42.2767 30.1594 42.2425 30.1105 42.3036 29.954C42.6583 29.0123 43.0031 28.0707 43.3847 27.041Z" fill="white"/>
<path d="M35.6534 27.9439C35.6534 27.6113 35.6534 27.2811 35.6534 26.9485C35.6534 26.858 35.6216 26.7308 35.7781 26.7357C36.5266 26.7602 37.2848 26.6476 38.0258 26.8017C38.6984 26.9387 38.9773 27.374 38.9259 28.1225C38.9119 28.3937 38.7966 28.6499 38.6027 28.8401C38.4088 29.0304 38.1506 29.1409 37.8791 29.1497C37.1992 29.2304 36.5143 29.1693 35.832 29.1913C35.6877 29.1913 35.6485 29.1326 35.651 28.9981C35.6559 28.6459 35.6534 28.2961 35.6534 27.9439Z" fill="white"/>
<path d="M38.5737 22.915C38.7977 22.3021 38.9448 21.6638 39.0115 21.0146C39.0482 20.682 39.0433 20.3518 39.0482 20.0192C39.0482 19.8724 39.0873 19.8088 39.2463 19.8137C39.5692 19.8137 39.892 19.8137 40.2246 19.8137C40.3714 19.8137 40.4056 19.8675 40.4056 20.0021C40.4056 20.9119 40.4056 21.8217 40.4056 22.7316C40.4056 22.8416 40.391 22.9175 40.2516 22.9175C39.6939 22.9101 39.1485 22.915 38.5737 22.915Z" fill="white"/>
<path d="M57.4872 19.8038C57.6486 19.8332 57.9763 19.6766 58.1231 19.865C58.2698 20.0533 58.1646 20.3321 58.1671 20.5743C58.1671 21.1417 58.1671 21.1441 57.607 21.1392C57.3344 21.1543 57.0609 21.1445 56.7901 21.1099C56.6238 21.0851 56.474 20.9956 56.3732 20.861C56.2725 20.7263 56.2289 20.5574 56.252 20.3908C56.2484 20.3119 56.2615 20.2332 56.2904 20.1597C56.3192 20.0862 56.3632 20.0196 56.4195 19.9642C56.4758 19.9089 56.5431 19.866 56.6171 19.8383C56.691 19.8107 56.77 19.7989 56.8488 19.8038C57.0322 19.7965 57.2181 19.8038 57.4872 19.8038Z" fill="white"/>
<path d="M34.6335 19.9995L35.2156 21.6749C35.2523 21.7801 35.201 21.8119 35.1007 21.8119H33.9536L34.6335 19.9995Z" fill="white"/>
<path d="M25.0949 19.9946L25.7357 21.8094C25.3273 21.8094 24.9579 21.8094 24.5886 21.8094C24.4688 21.8094 24.4345 21.7801 24.481 21.6602C24.6865 21.1246 24.8797 20.5865 25.0949 19.9946Z" fill="white"/>
</svg>
