<svg width="73" height="73" viewBox="0 0 73 73" fill="none" xmlns="http://www.w3.org/2000/svg">
<circle cx="36.5" cy="36.5" r="36" fill="white" stroke="#D5287A"/>
<path d="M39.7243 55.1881L39.8225 55.5607H40.2078H46.4015C50.741 55.5607 54.2598 51.9881 54.2598 47.6089V44.8362V44.3362H53.7598H53.2925H52.7925V44.8362V46.3845C52.7925 47.2937 52.0631 48.0233 51.1806 48.0233H49.4269C49.3798 48.0233 49.3332 47.993 49.3145 47.9406L49.196 47.6089H48.8437H48.1148C47.4781 47.6089 46.9914 47.1137 46.9914 46.5451V36.5537C46.9914 35.985 47.4781 35.4899 48.1148 35.4899H48.8437H49.196L49.3145 35.1581C49.3332 35.1057 49.3798 35.0755 49.4269 35.0755H51.2943C52.114 35.0755 52.7925 35.7534 52.7925 36.5991V38.2626V38.7626H53.2925H53.7598H54.2598V38.2626V36.2722C54.2598 25.5431 46.1007 16.7557 35.9999 16.7557C25.8993 16.7557 17.74 25.5431 17.74 36.2722V38.2626V38.7626H18.24H18.7073H19.2073V38.2626V36.5991C19.2073 35.7534 19.8858 35.0755 20.7055 35.0755H22.5729C22.62 35.0755 22.6665 35.1057 22.6853 35.1581L22.8038 35.4899H23.1561H23.885C24.5217 35.4899 25.0084 35.985 25.0084 36.5537V46.5451C25.0084 47.1137 24.5217 47.6089 23.885 47.6089H23.1561H22.8038L22.6853 47.9406C22.6665 47.9931 22.62 48.0233 22.5729 48.0233H20.8192C19.9367 48.0233 19.2073 47.2937 19.2073 46.3845V44.8362V44.3362H18.7073H17.62C17.5596 44.3362 17.5 44.2849 17.5 44.2083V36.2722C17.5 25.3393 25.8296 16.5 35.9999 16.5C46.1704 16.5 54.5 25.3393 54.5 36.2722V47.6087C54.5 52.1399 50.8607 55.8162 46.4017 55.8162H40.208H39.8227L39.7245 56.1888C39.5246 56.9474 38.842 57.5 38.0436 57.5H35.4713C34.5183 57.5 33.7314 56.7122 33.7314 55.7319V55.6453C33.7314 54.6648 34.5182 53.8772 35.4713 53.8772H38.0434C38.8421 53.8772 39.5244 54.4296 39.7243 55.1881ZM49.6215 47.2673V47.7673H50.1215H51.1808C51.9436 47.7673 52.5528 47.1413 52.5528 46.3843V36.5991C52.5528 35.9055 51.9947 35.3312 51.2945 35.3312H50.1215H49.6215V35.8312V47.2673ZM21.9529 47.7673H22.4529V47.2673V35.8312V35.3312H21.9529H20.7055C20.0053 35.3312 19.4472 35.9055 19.4472 36.5991V46.3843C19.4472 47.1416 20.0565 47.7673 20.8192 47.7673H21.9529ZM48.8815 47.3531H49.3815V46.8531V36.2456V35.7456H48.8815H48.1148C47.7383 35.7456 47.2314 36.0141 47.2314 36.5537V46.5451C47.2314 47.0848 47.7386 47.3531 48.1148 47.3531H48.8815ZM22.6929 46.8531V47.3531H23.1929H23.8852C24.2618 47.3531 24.7686 47.0847 24.7686 46.5451V36.5537C24.7686 36.0139 24.2614 35.7456 23.8852 35.7456H23.1929H22.6929V36.2456V46.8531ZM52.7927 43.5802V44.0802H53.2927H53.76H54.26V43.5802V39.5183V39.0183H53.76H53.2927H52.7927V39.5183V43.5802ZM17.74 43.5802V44.0802H18.24H18.7073H19.2073V43.5802V39.5183V39.0183H18.7073H18.24H17.74V39.5183V43.5802ZM35.4713 54.1327C34.6379 54.1327 33.9714 54.8166 33.9714 55.6451V55.7317C33.9714 56.5601 34.6379 57.244 35.4713 57.244H38.0434C38.8768 57.244 39.5432 56.5601 39.5432 55.7317V55.6451C39.5432 54.8166 38.8768 54.1327 38.0434 54.1327H35.4713Z" fill="black" stroke="#D5287A"/>
</svg>
